{
    "layout1": {
        "type": "layout",
        "height": 600,
        "width": 800,
        "pages": [
            "search-page",
            "my-stations-page",
            "preferences-page"
        ],
        "search-page": {
            "type": "page",
            "title": "Find Station",
            "sections": [
                "find-station-section"
            ]
        },
        "my-stations-page": {
            "type": "page",
            "title": "My Stations",
            "sections": [
                "station-list-section"
            ]
        },
        "preferences-page": {
            "type": "page",
            "title": "Preferences",
            "sections": [
                "appearance-section",
                "volume-section",
                "youtube-section"
            ]
        },
        "station-list-section": {
            "type": "section",
            "title": "List of stations",
            "keys": [
                "tree"
            ]
        },
        "find-station-section": {
            "type": "section",
            "title": "Search Radio station",
            "keys": [
                "radio-search-widget"
            ]
        },
        "appearance-section": {
            "type": "section",
            "title": "Appearance",
            "keys": [
                "icon-type",
                "color-on",
                "color-paused",
                "channel-on-panel"
            ]
        },
        "volume-section": {
            "type": "section",
            "title": "Volume",
            "keys": [
                "keep-volume-between-sessions",
                "initial-volume"
            ]
        },
        "youtube-section": {
            "type": "section",
            "title": "YouTube Download",
            "keys": [
                "youtube-download-cli",
                "music-download-dir-select"
            ]
        }
    },
    "tree": {
        "type": "list",
        "height": 400,
        "columns": [
            {
                "id": "inc",
                "title": "Show in list",
                "type": "boolean",
                "default": true
            },
            {
                "id": "name",
                "title": "Title",
                "type": "string"
            },
            {
                "id": "url",
                "title": "URL",
                "type": "string"
            }
        ],
        "default": [
            {
                "name": "Smooth Chill",
                "url": "https://media-ssl.musicradio.com/ChillMP3",
                "inc": true
            },
            {
                "name": "Austrian Rock Radio",
                "url": "http://live.antenne.at/arr",
                "inc": true
            },
            {
                "name": "R\u00e1dio KIKS Rock",
                "url": "https://stream.radiokiks.sk/kiks_rock.mp3",
                "inc": true
            },
            {
                "name": "Radio BOB",
                "url": "http://live6.infonetmedia.si/Europa05",
                "inc": true
            },
            {
                "name": "Deep House Radio",
                "url": "http://62.210.105.16:7000/stream",
                "inc": true
            }
        ],
        "value": [
            {
                "inc": true,
                "name": "1.FM - Chillout Lounge Radio",
                "url": "http://strm112.1.fm/chilloutlounge_mobile_mp3"
            },
            {
                "inc": true,
                "name": "Antenne Bayern - Chillout",
                "url": "http://mp3channels.webradio.antenne.de/chillout"
            },
            {
                "inc": true,
                "name": "Chillout Radio",
                "url": "http://panel.nadaje.com:9004"
            },
            {
                "inc": true,
                "name": "181 Smooth AC",
                "url": "http://listen.181fm.com/181-smoothac_128k.mp3"
            },
            {
                "inc": true,
                "name": "181.FM - Awesome 80's",
                "url": "http://listen.181fm.com/181-awesome80s_128k.mp3"
            },
            {
                "inc": true,
                "name": "Vibration Lounge",
                "url": "http://vibrationlounge.ice.infomaniak.ch/vibrationlounge.mp3"
            },
            {
                "inc": true,
                "name": "Radio Swiss Jazz",
                "url": "http://stream.srg-ssr.ch/m/rsj/mp3_128"
            },
            {
                "inc": true,
                "name": "Big R Radio - 80s FM",
                "url": "http://bigrradio-edge1.cdnstream.com/5184_128"
            },
            {
                "inc": true,
                "name": "RMC 80",
                "url": "http://edge.radiomontecarlo.net/rmcweb008"
            },
            {
                "inc": true,
                "name": "The Big 80s Station",
                "url": "http://158.69.114.190:8065/;"
            },
            {
                "inc": true,
                "name": "Royal Lounge",
                "url": "http://193.33.170.218:8000/RoyalLounge"
            },
            {
                "inc": true,
                "name": "Rouge FM Lounge",
                "url": "http://rougefm.ice.infomaniak.ch/rougefm-high.mp3"
            },
            {
                "inc": true,
                "name": "RauteMusik Lounge",
                "url": "http://rautemusik-de-hz-fal-stream16.radiohost.de/lounge"
            },
            {
                "inc": true,
                "name": "Lounge-Radio.com",
                "url": "http://nl1.lounge-radio.com/"
            },
            {
                "inc": true,
                "name": "Klassik Radio - Lounge",
                "url": "http://klassikr.streamabc.net/klr-lounge-mp3-128-7848446?sABC=5r79670q%230%23o000r827s931po57p4q48q3377r73615%23jjj.xynffvxenqvb.qr&amsparams=playerid:www.klassikradio.de;skey:1585014541"
            },
            {
                "inc": true,
                "name": "Hip Hop Lounge",
                "url": "http://streaming.radionomy.com/JamendoLounge"
            },
            {
                "inc": true,
                "name": "Dooglounge radio",
                "url": "http://dogglounge.com:8000/"
            },
            {
                "inc": true,
                "name": "Deep House Lounge",
                "url": "http://198.15.94.34:8006/stream"
            },
            {
                "inc": true,
                "name": ".977 80s",
                "url": "http://19763.live.streamtheworld.com/977_80_SC"
            },
            {
                "inc": true,
                "name": "Ibiza-Radios.com - Relax",
                "url": "http://radio2.vip-radios.fm:8036/stream-64kmp3-IbizaRelax_autodj"
            },
            {
                "inc": true,
                "name": "80s80s Love",
                "url": "http://streams.80s80s.de/love/mp3-192/streams.80s80s.de/"
            },
            {
                "inc": false,
                "name": "80s80s Christmas",
                "url": "http://streams.80s80s.de/christmas/mp3-192/streams.80s80s.de/"
            },
            {
                "inc": false,
                "name": "The Christmas Station",
                "url": "https://stream.radio.co/s63541ce9b/listen"
            },
            {
                "inc": false,
                "name": "1.FM - Always-Christmas Radio",
                "url": "http://strm112.1.fm/christmas_mobile_mp3"
            },
            {
                "inc": false,
                "name": "181.FM - Christmas Classics",
                "url": "http://www.181.fm/stream/pls/181-xtraditional.pls"
            },
            {
                "inc": false,
                "name": "181.FM - Christmas Smooth Jazz",
                "url": "http://www.181.fm/stream/pls/181-xsmooth.pls"
            },
            {
                "inc": true,
                "name": "80's 90's old music radio",
                "url": "https://maggie.torontocast.com:2020/stream/100greatestofthe80s"
            },
            {
                "inc": false,
                "name": "Christmas FM Classical & Carols",
                "url": "https://christmasfm.cdnstream1.com/2549_128.mp3?"
            }
        ]
    },
    "icon-type": {
        "type": "combobox",
        "description": "Icon type",
        "default": "SYMBOLIC",
        "options": {
            "Symbolic": "SYMBOLIC",
            "Full Color": "FULLCOLOR",
            "Bicolor": "BICOLOR"
        },
        "value": "SYMBOLIC"
    },
    "color-on": {
        "type": "colorchooser",
        "default": "#27ae60",
        "dependency": "icon-type=SYMBOLIC",
        "description": "Color of symbolic icon when playing a radio station",
        "value": "rgb(205,126,191)"
    },
    "color-paused": {
        "type": "colorchooser",
        "default": "#9fe1e7",
        "dependency": "icon-type=SYMBOLIC",
        "description": "Color of symbolic icon while a radio station is paused",
        "value": "rgb(76,86,106)"
    },
    "channel-on-panel": {
        "type": "checkbox",
        "description": "Show current radio station on the panel",
        "default": false,
        "value": false
    },
    "keep-volume-between-sessions": {
        "type": "checkbox",
        "description": "Remember volume after stopping the radio",
        "default": true,
        "value": true
    },
    "initial-volume": {
        "type": "spinbutton",
        "default": 50,
        "min": 5,
        "max": 100,
        "step": 5,
        "description": "Initial volume",
        "tooltip": "The initial volume is applied when clicking on a radio stream and no other radio stream is already running",
        "dependency": "keep-volume-between-sessions!=true",
        "value": 50
    },
    "last-volume": {
        "type": "generic",
        "value": 94,
        "default": 80
    },
    "last-url": {
        "type": "generic",
        "value": "https://maggie.torontocast.com:2020/stream/100greatestofthe80s",
        "default": null
    },
    "youtube-download-cli": {
        "type": "combobox",
        "description": "YouTube Download CLI tool",
        "tooltip": "The CLI tool used to download songs from YouTube",
        "default": "youtube-dl",
        "options": {
            "yt-dlp": "yt-dlp",
            "youtube-dl": "youtube-dl"
        },
        "value": "youtube-dl"
    },
    "music-download-dir-select": {
        "type": "filechooser",
        "description": "Download directory",
        "tooltip": "Songs downloaded from YouTube will be saved to this directory.",
        "default": "~/Music/Radio",
        "select-dir": true,
        "value": "~/Music/Radio"
    },
    "radio-search-widget": {
        "type": "custom",
        "file": "RadioSearchWidget.py",
        "widget": "RadioSearchWidget"
    },
    "__md5__": "94e261f9232aabd625a91e1ce85e02bf"
}